{"product_id": 1001, "product_name": "Telefon Siemens Gigaset DA310", "category_path": "Telefony i akcesoria;Telefony stacjonarne", "price": 58970000.0}
{"product_id": 1002, "product_name": "Kyocera FS-1135MFP", "category_path": "Komputery;Drukarki i skanery;Biurowe urz\u0105dzenia wielofunkcyjne", "price": 2048.5}
{"product_id": 1003, "product_name": "Kyocera FS-3640MFP", "category_path": "Komputery;Drukarki i skanery;Biurowe urz\u0105dzenia wielofunkcyjne", "price": 7639.0}
{"product_id": 1004, "product_name": "Fallout 3 (Xbox 360)", "category_path": "Gry i konsole;Gry na konsole;Gry Xbox 360", "price": 49.99}
{"product_id": 1005, "product_name": "Szalone Kr\u00f3liki Na \u017cywo i w kolorze (Xbox 360)", "category_path": "Gry i konsole;Gry na konsole;Gry Xbox 360", "price": 49.99}
{"product_id": 1006, "product_name": "Call of Duty 4 Modern Warfare (Xbox 360)", "category_path": "Gry i konsole;Gry na konsole;Gry Xbox 360", "price": 59.9}
{"product_id": 1007, "product_name": "Dead Space 3 (Xbox 360)", "category_path": "Gry i konsole;Gry na konsole;Gry Xbox 360", "price": 89.99}
{"product_id": 1008, "product_name": "Tom Clancy&#39;s Rainbow Six Vegas (Xbox 360)", "category_path": "Gry i konsole;Gry na konsole;Gry Xbox 360", "price": 49.99}
{"product_id": 1009, "product_name": "Kinect Joy Ride (Xbox 360)", "category_path": "Gry i konsole;Gry na konsole;Gry Xbox 360", "price": 69000000.0}
{"product_id": 1010, "product_name": "BioShock 2 (Xbox 360)", "category_path": "Gry i konsole;Gry na konsole;Gry Xbox 360", "price": 89.99}
{"product_id": 1011, "product_name": "BioShock Infinite (Xbox 360)", "category_path": "Gry i konsole;Gry na konsole;Gry Xbox 360", "price": 139.99}
{"product_id": 1012, "product_name": "Fallout New Vegas (Xbox 360)", "category_path": "Gry i konsole;Gry na konsole;Gry Xbox 360", "price": 69.0}
{"product_id": 1013, "product_name": "LA Noire (Xbox 360)", "category_path": "Gry i konsole;Gry na konsole;Gry Xbox 360", "price": 129.99}
{"product_id": 1014, "product_name": "Lego Batman 2 DC Super Heroes (Xbox 360)", "category_path": "Gry i konsole;Gry na konsole;Gry Xbox 360", "price": 69.99}
{"product_id": 1015, "product_name": "Max Payne 3 (Xbox 360)", "category_path": "Gry i konsole;Gry na konsole;Gry Xbox 360", "price": 89.99}
{"product_id": 1016, "product_name": "Rayman Origins (Xbox 360)", "category_path": "Gry i konsole;Gry na konsole;Gry Xbox 360", "price": 69.0}
{"product_id": 1017, "product_name": "LCD Dell U2412M", "category_path": "Komputery;Monitory;Monitory LCD", "price": 399.0}
{"product_id": 1018, "product_name": "Gears of War 3 (Xbox 360)", "category_path": "Gry i konsole;Gry na konsole;Gry Xbox 360", "price": 89.99}
{"product_id": 1019, "product_name": "GTA 4 (Xbox 360)", "category_path": "Gry i konsole;Gry na konsole;Gry Xbox 360", "price": 109.99}
{"product_id": 1020, "product_name": "Dead Space 2 (Xbox 360)", "category_path": "Gry i konsole;Gry na konsole;Gry Xbox 360", "price": -89.0}
{"product_id": 1021, "product_name": "Gears of War (Xbox 360)", "category_path": "Gry i konsole;Gry na konsole;Gry Xbox 360", "price": 69.0}
{"product_id": 1022, "product_name": "Mass Effect 2 (Xbox 360)", "category_path": "Gry i konsole;Gry na konsole;Gry Xbox 360", "price": 89.99}
{"product_id": 1023, "product_name": "Mass Effect 3 (Xbox 360)", "category_path": "Gry i konsole;Gry na konsole;Gry Xbox 360", "price": 89.99}
{"product_id": 1024, "product_name": "Mortal Kombat (Xbox 360)", "category_path": "Gry i konsole;Gry na konsole;Gry Xbox 360", "price": -89.99}
{"product_id": 1025, "product_name": "LCD BenQ GL2250", "category_path": "Komputery;Monitory;Monitory LCD", "price": 349.0}
{"product_id": 1026, "product_name": "Red Dead Redemption (Xbox 360)", "category_path": "Gry i konsole;Gry na konsole;Gry Xbox 360", "price": 139.99}
{"product_id": 1027, "product_name": "Skate 3 (Xbox 360)", "category_path": "Gry i konsole;Gry na konsole;Gry Xbox 360", "price": 56.0}
{"product_id": 1028, "product_name": "Sniper Ghost Warrior 2 (Xbox 360)", "category_path": "Gry i konsole;Gry na konsole;Gry Xbox 360", "price": 39.0}
{"product_id": 1029, "product_name": "Tom Clancy&#39;s Rainbow Six Vegas 2 (Xbox 360)", "category_path": "Gry i konsole;Gry na konsole;Gry Xbox 360", "price": 49.99}
{"product_id": 1030, "product_name": "LCD Iiyama B2280WSD", "category_path": "Komputery;Monitory;Monitory LCD", "price": 739.0}
{"product_id": 1031, "product_name": "Need for Speed Most Wanted (Xbox 360)", "category_path": "Gry i konsole;Gry na konsole;Gry Xbox 360", "price": 79.9}
{"product_id": 1032, "product_name": "LCD Iiyama E2280WSD", "category_path": "Komputery;Monitory;Monitory LCD", "price": 688.78}
{"product_id": 1033, "product_name": "LCD Iiyama T1932MSC", "category_path": "Komputery;Monitory;Monitory LCD", "price": 3029.0}
{"product_id": 1034, "product_name": "LCD NEC EA223WM", "category_path": "Komputery;Monitory;Monitory LCD", "price": 1079.0}
{"product_id": 1035, "product_name": "Samsung Galaxy S III GT-i9300", "category_path": "Telefony i akcesoria;Telefony kom\u00f3rkowe", "price": 2199.9}
{"product_id": 1036, "product_name": "LCD Asus VK228H", "category_path": "Komputery;Monitory;Monitory LCD", "price": 639000000.0}
{"product_id": 1037, "product_name": "LCD Asus VK248H", "category_path": "Komputery;Monitory;Monitory LCD", "price": 799.0}
{"product_id": 1038, "product_name": "LCD Asus VK278Q", "category_path": "Komputery;Monitory;Monitory LCD", "price": 1117.01}
{"product_id": 1039, "product_name": "LCD Asus VS197D", "category_path": "Komputery;Monitory;Monitory LCD", "price": 269.0}
{"product_id": 1040, "product_name": "Crysis 2 (PS3)", "category_path": "Gry i konsole;Gry na konsole;Gry PlayStation3", "price": 79.9}
{"product_id": 1041, "product_name": "Crysis 3 (PS3)", "category_path": "Gry i konsole;Gry na konsole;Gry PlayStation3", "price": 79.9}
{"product_id": 1042, "product_name": "GTA 5 (PS3)", "category_path": "Gry i konsole;Gry na konsole;Gry PlayStation3", "price": 129.0}
{"product_id": 1043, "product_name": "Fight Night Champion (PS3)", "category_path": "Gry i konsole;Gry na konsole;Gry PlayStation3", "price": 109000000.0}
{"product_id": 1044, "product_name": "Assassin&#39;s Creed 3 (PS3)", "category_path": "Gry i konsole;Gry na konsole;Gry PlayStation3", "price": -79.9}
{"product_id": 1045, "product_name": "Call of Duty Modern Warfare 2 (PS3)", "category_path": "Gry i konsole;Gry na konsole;Gry PlayStation3", "price": -59.9}
{"product_id": 1046, "product_name": "LEGO Batman 2 DC Super Heroes (PS3)", "category_path": "Gry i konsole;Gry na konsole;Gry PlayStation3", "price": 61.18}
{"product_id": 1047, "product_name": "Pirates of the Caribbean At World&#39;s End (PS3)", "category_path": "Gry i konsole;Gry na konsole;Gry PlayStation3", "price": 89.9}
{"product_id": 1048, "product_name": "Gra o tron (PC)", "category_path": "Gry i konsole;Gry komputerowe", "price": 63.49}
{"product_id": 1049, "product_name": "Max Payne 3 (PC)", "category_path": "Gry i konsole;Gry komputerowe", "price": -17.9}
{"product_id": 1050, "product_name": "Bioshock 2 (PC)", "category_path": "Gry i konsole;Gry komputerowe", "price": -37.9}
{"product_id": 1051, "product_name": "Spec Ops The Line (PC)", "category_path": "Gry i konsole;Gry komputerowe", "price": 76.9}
{"product_id": 1052, "product_name": "Duke Nukem Forever (PC)", "category_path": "Gry i konsole;Gry komputerowe", "price": 78.9}
{"product_id": 1053, "product_name": "Anno 2070 (PC)", "category_path": "Gry i konsole;Gry komputerowe", "price": 42.9}
{"product_id": 1054, "product_name": "Call of Duty 2 (PC)", "category_path": "Gry i konsole;Gry komputerowe", "price": 32.99}
{"product_id": 1055, "product_name": "Call of Duty Modern Warfare 3 (PC)", "category_path": "Gry i konsole;Gry komputerowe", "price": 32.99}
{"product_id": 1056, "product_name": "Call of Duty Black Ops (PC)", "category_path": "Gry i konsole;Gry komputerowe", "price": 29.99}
{"product_id": 1057, "product_name": "Doom 3 (PC)", "category_path": "Gry i konsole;Gry komputerowe", "price": 19.99}
{"product_id": 1058, "product_name": "Angry Birds Classic (PC)", "category_path": "Gry i konsole;Gry komputerowe", "price": 24.99}
{"product_id": 1059, "product_name": "Auta 2 (PC)", "category_path": "Gry i konsole;Gry komputerowe", "price": -22.9}
{"product_id": 1060, "product_name": "Wied\u017amin 2 Zab\u00f3jcy kr\u00f3l\u00f3w (PC)", "category_path": "Gry i konsole;Gry komputerowe", "price": 34.99}
{"product_id": 1061, "product_name": "Warhammer 40.000 Dawn of War (PC)", "category_path": "Gry i konsole;Gry komputerowe", "price": 10.99}
{"product_id": 1062, "product_name": "Ridge Racer Unbounded (PC)", "category_path": "Gry i konsole;Gry komputerowe", "price": 36.99}
{"product_id": 1063, "product_name": "Air Conflicts (PC)", "category_path": "Gry i konsole;Gry komputerowe", "price": 75.99}
{"product_id": 1064, "product_name": "LCD BenQ GL2250HM", "category_path": "Komputery;Monitory;Monitory LCD", "price": -380.9}
{"product_id": 1065, "product_name": "LCD Asus PA248Q", "category_path": "Komputery;Monitory;Monitory LCD", "price": 1419.0}
{"product_id": 1066, "product_name": "LCD Iiyama T1931SR", "category_path": "Komputery;Monitory;Monitory LCD", "price": 2065.0}
{"product_id": 1067, "product_name": "Nokia 3310", "category_path": "Telefony i akcesoria;Telefony kom\u00f3rkowe", "price": 207.33}
{"product_id": 1068, "product_name": "LCD NEC EA223WMe", "category_path": "Komputery;Monitory;Monitory LCD", "price": 999.0}
{"product_id": 1069, "product_name": "LCD NEC EA224WMi", "category_path": "Komputery;Monitory;Monitory LCD", "price": 979.0}
{"product_id": 1070, "product_name": "LCD Philips 241S4LCB", "category_path": "Komputery;Monitory;Monitory LCD", "price": 609.0}
{"product_id": 1071, "product_name": "LCD Philips 241B4LPYCB", "category_path": "Komputery;Monitory;Monitory LCD", "price": 689.0}
{"product_id": 1072, "product_name": "Jabra Freeway", "category_path": "Telefony i akcesoria;Akcesoria telefoniczne;Zestawy g\u0142o\u015bnom\u00f3wi\u0105ce", "price": 299.0}
{"product_id": 1073, "product_name": "Jabra Drive", "category_path": "Telefony i akcesoria;Akcesoria telefoniczne;Zestawy g\u0142o\u015bnom\u00f3wi\u0105ce", "price": 129000000.0}
{"product_id": 1074, "product_name": "Gembird BTCC-002", "category_path": "Telefony i akcesoria;Akcesoria telefoniczne;Zestawy g\u0142o\u015bnom\u00f3wi\u0105ce", "price": 86.28}
{"product_id": 1075, "product_name": "Ricoh SG3110DN", "category_path": "Komputery;Drukarki i skanery;Biurowe urz\u0105dzenia wielofunkcyjne", "price": 1998.14}
{"product_id": 1076, "product_name": "Samsung CLX-6260FR ### Gad\u017cety Samsung ### Eksploatacja -10% ### Negocjuj Cen\u0119 ### Raty ### Szybkie P\u0142atno\u015bci ### Szybka Wysy\u0142ka", "category_path": "Komputery;Drukarki i skanery;Biurowe urz\u0105dzenia wielofunkcyjne", "price": 2399.0}
{"product_id": 1077, "product_name": "Kyocera FS-C2026MFP", "category_path": "Komputery;Drukarki i skanery;Biurowe urz\u0105dzenia wielofunkcyjne", "price": -3777.0}
{"product_id": 1078, "product_name": "Kyocera FS-3540MFP", "category_path": "Komputery;Drukarki i skanery;Biurowe urz\u0105dzenia wielofunkcyjne", "price": 5126.0}
{"product_id": 1079, "product_name": "Kyocera FS-3040MFP", "category_path": "Komputery;Drukarki i skanery;Biurowe urz\u0105dzenia wielofunkcyjne", "price": 4598.0}
{"product_id": 1080, "product_name": "Kyocera FS-3140MFP", "category_path": "Komputery;Drukarki i skanery;Biurowe urz\u0105dzenia wielofunkcyjne", "price": 5301.9}
{"product_id": 1081, "product_name": "OKI B840dn", "category_path": "Komputery;Drukarki i skanery;Biurowe urz\u0105dzenia wielofunkcyjne", "price": -5259.0}
{"product_id": 1082, "product_name": "Total War Shogun 2 (PC)", "category_path": "Gry i konsole;Gry komputerowe", "price": 34.99}
{"product_id": 1083, "product_name": "MAJESTY ANTOLOGIA (PC)", "category_path": "Gry i konsole;Gry komputerowe", "price": 8.99}
{"product_id": 1084, "product_name": "Sing It High School Musical 3 (PS3)", "category_path": "Gry i konsole;Gry na konsole;Gry PlayStation3", "price": 99.99}
{"product_id": 1085, "product_name": "Dishonored (PC)", "category_path": "Gry i konsole;Gry komputerowe", "price": 34.99}
{"product_id": 1086, "product_name": "Disney Universe (PC)", "category_path": "Gry i konsole;Gry komputerowe", "price": 24.9}
{"product_id": 1087, "product_name": "Fallout 3 (PC)", "category_path": "Gry i konsole;Gry komputerowe", "price": 34.99}
{"product_id": 1088, "product_name": "Fallout New Vegas (PC)", "category_path": "Gry i konsole;Gry komputerowe", "price": 32.99}
{"product_id": 1089, "product_name": "Rayman Origins (PC)", "category_path": "Gry i konsole;Gry komputerowe", "price": 37.9}
{"product_id": 1090, "product_name": "W\u0142adca Pier\u015bcieni Wojna Na P\u00f3\u0142nocy (PC)", "category_path": "Gry i konsole;Gry komputerowe", "price": 33.99}
{"product_id": 1091, "product_name": "Borderlands (PC)", "category_path": "Gry i konsole;Gry komputerowe", "price": 118.9}
{"product_id": 1092, "product_name": "Company of Heroes (PC)", "category_path": "Gry i konsole;Gry komputerowe", "price": 34.99}
{"product_id": 1093, "product_name": "Company of Heroes 2 (PC)", "category_path": "Gry i konsole;Gry komputerowe", "price": 34.99}
{"product_id": 1094, "product_name": "Hospital Tycoon (PC)", "category_path": "Gry i konsole;Gry komputerowe", "price": 17.99}
{"product_id": 1095, "product_name": "Twierdza 2 (PC)", "category_path": "Gry i konsole;Gry komputerowe", "price": 34.99}
{"product_id": 1096, "product_name": "Bionic Commando (PC)", "category_path": "Gry i konsole;Gry komputerowe", "price": 36.99}
{"product_id": 1097, "product_name": "Company of Heroes Tales of Valor (PC)", "category_path": "Gry i konsole;Gry komputerowe", "price": 49.99}
{"product_id": 1098, "product_name": "DIRT 3 (PC)", "category_path": "Gry i konsole;Gry komputerowe", "price": 16.9}
{"product_id": 1099, "product_name": "Resident Evil 5 (PC)", "category_path": "Gry i konsole;Gry komputerowe", "price": 75.0}
{"product_id": 1100, "product_name": "Cities in Motion (PC)", "category_path": "Gry i konsole;Gry komputerowe", "price": -4.99}
{"product_id": 1101, "product_name": "Dragonshard (PC)", "category_path": "Gry i konsole;Gry komputerowe", "price": 3.0}
{"product_id": 1102, "product_name": "Dream Pinball 3D (PC)", "category_path": "Gry i konsole;Gry komputerowe", "price": 4.9}
{"product_id": 1103, "product_name": "Symulator \u015amieciarki (PC)", "category_path": "Gry i konsole;Gry komputerowe", "price": 49.9}
{"product_id": 1104, "product_name": "Anomaly Warzone Earth (PC)", "category_path": "Gry i konsole;Gry komputerowe", "price": 37.99}
{"product_id": 1105, "product_name": "Battlefield 3 Close Quarters (PC)", "category_path": "Gry i konsole;Gry komputerowe", "price": 10.9}
{"product_id": 1106, "product_name": "Overlord (PC)", "category_path": "Gry i konsole;Gry komputerowe", "price": 17.99}
{"product_id": 1107, "product_name": "Rise of the Argonauts (PC)", "category_path": "Gry i konsole;Gry komputerowe", "price": 34.99}
{"product_id": 1108, "product_name": "Dead Space 2 (PC)", "category_path": "Gry i konsole;Gry komputerowe", "price": 28.9}
{"product_id": 1109, "product_name": "Batman Arkham Asylum (PC)", "category_path": "Gry i konsole;Gry komputerowe", "price": 33.99}
{"product_id": 1110, "product_name": "Bioshock (PC)", "category_path": "Gry i konsole;Gry komputerowe", "price": 82.9}
{"product_id": 1111, "product_name": "Battlefield Bad Company 2 (PC)", "category_path": "Gry i konsole;Gry komputerowe", "price": 32.9}
{"product_id": 1112, "product_name": "Singularity (PC)", "category_path": "Gry i konsole;Gry komputerowe", "price": 8.9}
{"product_id": 1113, "product_name": "Borderlands 2 (PC)", "category_path": "Gry i konsole;Gry komputerowe", "price": 16.9}
{"product_id": 1114, "product_name": "Brink (PC)", "category_path": "Gry i konsole;Gry komputerowe", "price": 32.99}
{"product_id": 1115, "product_name": "Napoleon Total War (PC)", "category_path": "Gry i konsole;Gry komputerowe", "price": 34.99}
{"product_id": 1116, "product_name": "Call of Duty 4 Modern Warfare (PC)", "category_path": "Gry i konsole;Gry komputerowe", "price": 45.9}
{"product_id": 1117, "product_name": "Sonic Generations (PC)", "category_path": "Gry i konsole;Gry komputerowe", "price": 79.99}
{"product_id": 1118, "product_name": "Sniper Ghost Warrior (PC)", "category_path": "Gry i konsole;Gry komputerowe", "price": 14.9}
{"product_id": 1119, "product_name": "Civilization 5 Bogowie i Kr\u00f3lowie (PC)", "category_path": "Gry i konsole;Gry komputerowe", "price": 78.0}
{"product_id": 1120, "product_name": "Civilization 4 Warlords (PC)", "category_path": "Gry i konsole;Gry komputerowe", "price": 20.9}
{"product_id": 1121, "product_name": "Battlefield 3 Powr\u00f3t do Karkand (PC)", "category_path": "Gry i konsole;Gry komputerowe", "price": 29.99}
{"product_id": 1122, "product_name": "Dead Rising 2 (PC)", "category_path": "Gry i konsole;Gry komputerowe", "price": 73.0}
{"product_id": 1123, "product_name": "Deep Black Reloaded (PC)", "category_path": "Gry i konsole;Gry komputerowe", "price": 132.9}
{"product_id": 1124, "product_name": "Devil May Cry 4 (PC)", "category_path": "Gry i konsole;Gry komputerowe", "price": 94.0}
{"product_id": 1125, "product_name": "Diablo 3 (PC)", "category_path": "Gry i konsole;Gry komputerowe", "price": 69.9}
{"product_id": 1126, "product_name": "The Sims 3 Pokolenia (PC)", "category_path": "Gry i konsole;Gry komputerowe", "price": 99.99}
{"product_id": 1127, "product_name": "Dark Void (PC)", "category_path": "Gry i konsole;Gry komputerowe", "price": 41.0}
{"product_id": 1128, "product_name": "Anarchy Reigns (Xbox 360)", "category_path": "Gry i konsole;Gry na konsole;Gry Xbox 360", "price": 14.99}
{"product_id": 1129, "product_name": "Battlefield Bad Company 2 (Xbox 360)", "category_path": "Gry i konsole;Gry na konsole;Gry Xbox 360", "price": 89.99}
{"product_id": 1130, "product_name": "Tom Clancy&#39;s Ghost Recon 4 Future Soldier (Xbox 360)", "category_path": "Gry i konsole;Gry na konsole;Gry Xbox 360", "price": 49.99}
{"product_id": 1131, "product_name": "The Elder Scrolls 5 Skyrim (PC)", "category_path": "Gry i konsole;Gry komputerowe", "price": 34.99}
{"product_id": 1132, "product_name": "A New Beginning (PC)", "category_path": "Gry i konsole;Gry komputerowe", "price": 4.99}
{"product_id": 1133, "product_name": "Symulator Agrar 2012 (PC)", "category_path": "Gry i konsole;Gry komputerowe", "price": 19.99}
{"product_id": 1134, "product_name": "Air Conflicts Secret Wars (PC)", "category_path": "Gry i konsole;Gry komputerowe", "price": 38.99}
{"product_id": 1135, "product_name": "Bioshock Infinite (PC)", "category_path": "Gry i konsole;Gry komputerowe", "price": 18.9}
{"product_id": 1136, "product_name": "Just Cause (PC)", "category_path": "Gry i konsole;Gry komputerowe", "price": 199.9}
{"product_id": 1137, "product_name": "Death Track Resurrection (PC)", "category_path": "Gry i konsole;Gry komputerowe", "price": 11.9}
{"product_id": 1138, "product_name": "Dead Rising 2 Off the Record (PC)", "category_path": "Gry i konsole;Gry komputerowe", "price": 47.79}
{"product_id": 1139, "product_name": "F1 2012 (PC)", "category_path": "Gry i konsole;Gry komputerowe", "price": 71.99}
{"product_id": 1140, "product_name": "Euro Truck Simulator 2 (PC)", "category_path": "Gry i konsole;Gry komputerowe", "price": 12.99}
{"product_id": 1141, "product_name": "Kr\u00f3l Futbolu Pi\u0142karski Quiz (PC)", "category_path": "Gry i konsole;Gry komputerowe", "price": 1000000.0}
{"product_id": 1142, "product_name": "Toy Story Mania (PC)", "category_path": "Gry i konsole;Gry komputerowe", "price": 23.9}
{"product_id": 1143, "product_name": "GTR Evolution (PC)", "category_path": "Gry i konsole;Gry komputerowe", "price": 25490000.0}
{"product_id": 1144, "product_name": "Street Fighter 4 (PC)", "category_path": "Gry i konsole;Gry komputerowe", "price": 1.99}
{"product_id": 1145, "product_name": "Sniper Elite V2 (PC)", "category_path": "Gry i konsole;Gry komputerowe", "price": 31.9}
{"product_id": 1146, "product_name": "Tropico 3 (PC)", "category_path": "Gry i konsole;Gry komputerowe", "price": 24.9}
{"product_id": 1147, "product_name": "Kurczak Ma\u0142y (PC)", "category_path": "Gry i konsole;Gry komputerowe", "price": 19.99}
{"product_id": 1148, "product_name": "Iniemamocni (PC)", "category_path": "Gry i konsole;Gry komputerowe", "price": 169.0}
{"product_id": 1149, "product_name": "Medal of Honor Warfighter (PC)", "category_path": "Gry i konsole;Gry komputerowe", "price": 56.9}
{"product_id": 1150, "product_name": "LEGO Piraci z Karaib\u00f3w (PC)", "category_path": "Gry i konsole;Gry komputerowe", "price": 25.9}
{"product_id": 1151, "product_name": "Mafia 2 (PC)", "category_path": "Gry i konsole;Gry komputerowe", "price": 11.9}
{"product_id": 1152, "product_name": "Mortal Kombat Komplete (PC)", "category_path": "Gry i konsole;Gry komputerowe", "price": 32.99}
{"product_id": 1153, "product_name": "Symulator Policji (PC)", "category_path": "Gry i konsole;Gry komputerowe", "price": 37.91}
{"product_id": 1154, "product_name": "Civilization 4 (PC)", "category_path": "Gry i konsole;Gry komputerowe", "price": 40900000.0}
{"product_id": 1155, "product_name": "The Sims 3 Kariera (PC)", "category_path": "Gry i konsole;Gry komputerowe", "price": 31.9}
{"product_id": 1156, "product_name": "Rig&#39;n&#39;Roll Tirowiec (PC)", "category_path": "Gry i konsole;Gry komputerowe", "price": 4.99}
{"product_id": 1157, "product_name": "The Elder Scrolls 4 Oblivion (PC)", "category_path": "Gry i konsole;Gry komputerowe", "price": 34.99}
{"product_id": 1158, "product_name": "Lego Star Wars The Complete Saga (PC)", "category_path": "Gry i konsole;Gry komputerowe", "price": 36.9}
{"product_id": 1159, "product_name": "The Darkness 2 (PC)", "category_path": "Gry i konsole;Gry komputerowe", "price": 121.9}
{"product_id": 1160, "product_name": "Street Racing Syndicate (PC)", "category_path": "Gry i konsole;Gry komputerowe", "price": 11.9}
{"product_id": 1161, "product_name": "XCOM Enemy Unknown (PC)", "category_path": "Gry i konsole;Gry komputerowe", "price": 18.9}
{"product_id": 1162, "product_name": "Total War Shogun (PC)", "category_path": "Gry i konsole;Gry komputerowe", "price": -30.9}
{"product_id": 1163, "product_name": "Trucks &amp; Trailers (PC)", "category_path": "Gry i konsole;Gry komputerowe", "price": 17.99}
{"product_id": 1164, "product_name": "Aliens Colonial Marines (PC)", "category_path": "Gry i konsole;Gry komputerowe", "price": 112.99}
{"product_id": 1165, "product_name": "Gdzie jest Nemo (PC)", "category_path": "Gry i konsole;Gry komputerowe", "price": 19.99}
{"product_id": 1166, "product_name": "Empire Total War (PC)", "category_path": "Gry i konsole;Gry komputerowe", "price": 96.99}
{"product_id": 1167, "product_name": "Aliens vs Predator (PC)", "category_path": "Gry i konsole;Gry komputerowe", "price": 91.99}
{"product_id": 1168, "product_name": "Angry Birds Space (PC)", "category_path": "Gry i konsole;Gry komputerowe", "price": 24.99}
{"product_id": 1169, "product_name": "Bus Driver (PC)", "category_path": "Gry i konsole;Gry komputerowe", "price": -9.99}
{"product_id": 1170, "product_name": "Symulator Kamienio\u0142omu (PC)", "category_path": "Gry i konsole;Gry komputerowe", "price": 4.99}
{"product_id": 1171, "product_name": "Race Driver Grid (PC)", "category_path": "Gry i konsole;Gry komputerowe", "price": 142.99}
{"product_id": 1172, "product_name": "Silent Hunter 5 Bitwa o Atlantyk (PC)", "category_path": "Gry i konsole;Gry komputerowe", "price": 31.9}
{"product_id": 1173, "product_name": "The Sims 3 Wymarzone Podr\u00f3\u017ce (PC)", "category_path": "Gry i konsole;Gry komputerowe", "price": 34.9}
{"product_id": 1174, "product_name": "Euro Truck Simulator (PC)", "category_path": "Gry i konsole;Gry komputerowe", "price": 8.99}
{"product_id": 1175, "product_name": "Europa Universalis 3 (PC)", "category_path": "Gry i konsole;Gry komputerowe", "price": 122.99}
{"product_id": 1176, "product_name": "The Sims 3 Nowoczesny Apartament (PC)", "category_path": "Gry i konsole;Gry komputerowe", "price": 27.9}
{"product_id": 1177, "product_name": "Twierdza 3 (PC)", "category_path": "Gry i konsole;Gry komputerowe", "price": 34.99}
{"product_id": 1178, "product_name": "King&#39;s Bounty Nowe \u015awiaty (PC)", "category_path": "Gry i konsole;Gry komputerowe", "price": 9.99}
{"product_id": 1179, "product_name": "Symulator Kopalni (PC)", "category_path": "Gry i konsole;Gry komputerowe", "price": 14.99}
{"product_id": 1180, "product_name": "Split/Second (PC)", "category_path": "Gry i konsole;Gry komputerowe", "price": 24.9}
{"product_id": 1181, "product_name": "Still Life (PC)", "category_path": "Gry i konsole;Gry komputerowe", "price": 24.9}
{"product_id": 1182, "product_name": "Battlefield 3 (PC)", "category_path": "Gry i konsole;Gry komputerowe", "price": 36.9}
{"product_id": 1183, "product_name": "GTA San Andreas (PC)", "category_path": "Gry i konsole;Gry komputerowe", "price": 40.9}
{"product_id": 1184, "product_name": "Men of War Oddzia\u0142 Szturmowy (PC)", "category_path": "Gry i konsole;Gry komputerowe", "price": 4.99}
{"product_id": 1185, "product_name": "Homefront (PC)", "category_path": "Gry i konsole;Gry komputerowe", "price": 12.9}
{"product_id": 1186, "product_name": "Symulator Budowy Most\u00f3w (PC)", "category_path": "Gry i konsole;Gry komputerowe", "price": 18.24}
{"product_id": 1187, "product_name": "Symulator Czo\u0142gu (PC)", "category_path": "Gry i konsole;Gry komputerowe", "price": 13.0}
{"product_id": 1188, "product_name": "Star Wars Battlefront 2 (PC)", "category_path": "Gry i konsole;Gry komputerowe", "price": 55.0}
{"product_id": 1189, "product_name": "Star Wars Jedi Knight 2 Jedi Outcast (PC)", "category_path": "Gry i konsole;Gry komputerowe", "price": 17.9}
{"product_id": 1190, "product_name": "Star Wars The Force Unleashed 2 (PC)", "category_path": "Gry i konsole;Gry komputerowe", "price": 70.9}
{"product_id": 1191, "product_name": "Red Faction Guerrilla (PC)", "category_path": "Gry i konsole;Gry komputerowe", "price": 19.99}
{"product_id": 1192, "product_name": "GTA Trylogia (PC)", "category_path": "Gry i konsole;Gry komputerowe", "price": 76.9}
{"product_id": 1193, "product_name": "Heroes Over Europe (PC)", "category_path": "Gry i konsole;Gry komputerowe", "price": 1.0}
{"product_id": 1194, "product_name": "Operation Flashpoint Dragon Rising (PC)", "category_path": "Gry i konsole;Gry komputerowe", "price": 34.99}
{"product_id": 1195, "product_name": "Titan Quest (PC)", "category_path": "Gry i konsole;Gry komputerowe", "price": 38.9}
{"product_id": 1196, "product_name": "Worms Reloaded (PC)", "category_path": "Gry i konsole;Gry komputerowe", "price": 46.99}
{"product_id": 1197, "product_name": "Hearts of Iron 3 (PC)", "category_path": "Gry i konsole;Gry komputerowe", "price": 15990000.0}
{"product_id": 1198, "product_name": "Tropico 4 (PC)", "category_path": "Gry i konsole;Gry komputerowe", "price": 16.9}
{"product_id": 1199, "product_name": "GTA 5 (PC)", "category_path": "Gry i konsole;Gry komputerowe", "price": 63.9}
{"product_id": 1200, "product_name": "Star Wars Knights of the Old Republic (PC)", "category_path": "Gry i konsole;Gry komputerowe", "price": 23.9}
{"product_id": 1201, "product_name": "Jabra Speak 410", "category_path": "Telefony i akcesoria;Akcesoria telefoniczne;Zestawy g\u0142o\u015bnom\u00f3wi\u0105ce", "price": 327.47}
{"product_id": 1202, "product_name": "Final Fantasy 14 (PC)", "category_path": "Gry i konsole;Gry komputerowe", "price": 135.9}
{"product_id": 1203, "product_name": "LEGO Batman 2 DC Super Heroes (PC)", "category_path": "Gry i konsole;Gry komputerowe", "price": 29.99}
{"product_id": 1204, "product_name": "Prosiaczek i Przyjaciele (PC)", "category_path": "Gry i konsole;Gry komputerowe", "price": 19.99}
{"product_id": 1205, "product_name": "Return to Mysterious Island (PC)", "category_path": "Gry i konsole;Gry komputerowe", "price": 23.9}
{"product_id": 1206, "product_name": "Hearts of Iron 2 (PC)", "category_path": "Gry i konsole;Gry komputerowe", "price": 3.59}
{"product_id": 1207, "product_name": "LEGO Batman (PC)", "category_path": "Gry i konsole;Gry komputerowe", "price": 24.99}
{"product_id": 1208, "product_name": "Mapeci\u0105tka podr\u00f3\u017cuj\u0105 (PC)", "category_path": "Gry i konsole;Gry komputerowe", "price": 13.79}
{"product_id": 1209, "product_name": "Mapeci\u0105tka zdobywaj\u0105 wiedz\u0119 (PC)", "category_path": "Gry i konsole;Gry komputerowe", "price": 15.47}
{"product_id": 1210, "product_name": "Mass Effect 2 (PC)", "category_path": "Gry i konsole;Gry komputerowe", "price": 33.9}
{"product_id": 1211, "product_name": "Need for Speed Shift 2 Unleashed (PC)", "category_path": "Gry i konsole;Gry komputerowe", "price": 27.9}
{"product_id": 1212, "product_name": "Arma 3 (PC)", "category_path": "Gry i konsole;Gry komputerowe", "price": 102.9}
{"product_id": 1213, "product_name": "Symulator Zamiatarki ulic (PC)", "category_path": "Gry i konsole;Gry komputerowe", "price": -5.0}
{"product_id": 1214, "product_name": "Call of Cthulhu Mroczne zakamarki \u015awiata (PC)", "category_path": "Gry i konsole;Gry komputerowe", "price": 18990000.0}
{"product_id": 1215, "product_name": "Patrician 4 (PC)", "category_path": "Gry i konsole;Gry komputerowe", "price": 34.9}
{"product_id": 1216, "product_name": "Damnation (PC)", "category_path": "Gry i konsole;Gry komputerowe", "price": -34.99}
{"product_id": 1217, "product_name": "Hitman Krwawa Forsa (PC)", "category_path": "Gry i konsole;Gry komputerowe", "price": 19.9}
{"product_id": 1218, "product_name": "LEGO W\u0142adca Pier\u015bcieni (PC)", "category_path": "Gry i konsole;Gry komputerowe", "price": 39.99}
{"product_id": 1219, "product_name": "Overlord 2 (PC)", "category_path": "Gry i konsole;Gry komputerowe", "price": 34.99}
{"product_id": 1220, "product_name": "SimCity (PC)", "category_path": "Gry i konsole;Gry komputerowe", "price": 24.9}
{"product_id": 1221, "product_name": "The Sims 3 Cztery Pory Roku (PC)", "category_path": "Gry i konsole;Gry komputerowe", "price": 31.9}
{"product_id": 1222, "product_name": "Parrot Minikit NEO", "category_path": "Telefony i akcesoria;Akcesoria telefoniczne;Zestawy g\u0142o\u015bnom\u00f3wi\u0105ce", "price": 245.0}
{"product_id": 1223, "product_name": "Call of Duty Black Ops 2 (PC)", "category_path": "Gry i konsole;Gry komputerowe", "price": 32.99}
{"product_id": 1224, "product_name": "Call of Juarez Wi\u0119zy Krwi (PC)", "category_path": "Gry i konsole;Gry komputerowe", "price": 39.9}
{"product_id": 1225, "product_name": "Tygrysek i Uczta Kubusia (PC)", "category_path": "Gry i konsole;Gry komputerowe", "price": 30.0}
{"product_id": 1226, "product_name": "Supreme Commander (PC)", "category_path": "Gry i konsole;Gry komputerowe", "price": 41.9}
{"product_id": 1227, "product_name": "Karaoke Hity Disco Polo (PC)", "category_path": "Gry i konsole;Gry komputerowe", "price": 24.99}
{"product_id": 1228, "product_name": "Lego Harry Potter Lata 1-4 (PC)", "category_path": "Gry i konsole;Gry komputerowe", "price": -24.99}
{"product_id": 1229, "product_name": "Symulator Prac Le\u015bnych (PC)", "category_path": "Gry i konsole;Gry komputerowe", "price": 35.0}
{"product_id": 1230, "product_name": "Symulator Rob\u00f3t Drogowych (PC)", "category_path": "Gry i konsole;Gry komputerowe", "price": 47700000.0}
{"product_id": 1231, "product_name": "Symulator Transportu Kolejowego (PC)", "category_path": "Gry i konsole;Gry komputerowe", "price": 18.24}
{"product_id": 1232, "product_name": "Symulator Prac G\u00f3rniczych (PC)", "category_path": "Gry i konsole;Gry komputerowe", "price": 18.24}
{"product_id": 1233, "product_name": "Manta DVD064", "category_path": "Sprz\u0119t RTV;Video;Odtwarzacze DVD", "price": 109.0}
{"product_id": 1234, "product_name": "Sony DVP-SR760", "category_path": "Sprz\u0119t RTV;Video;Odtwarzacze DVD", "price": 193000000.0}
{"product_id": 1235, "product_name": "Baldur&#39;s Gate (PC)", "category_path": "Gry i konsole;Gry komputerowe", "price": 34.99}
{"product_id": 1236, "product_name": "Avencast Rise of the Mage (PC)", "category_path": "Gry i konsole;Gry komputerowe", "price": 31.99}
{"product_id": 1237, "product_name": "Race Injection (PC)", "category_path": "Gry i konsole;Gry komputerowe", "price": 35.99}
{"product_id": 1238, "product_name": "Lego Harry Potter Lata 5-7 (PC)", "category_path": "Gry i konsole;Gry komputerowe", "price": 34.99}
{"product_id": 1239, "product_name": "Civilization 3 (PC)", "category_path": "Gry i konsole;Gry komputerowe", "price": 20900000.0}
{"product_id": 1240, "product_name": "PREY (PC)", "category_path": "Gry i konsole;Gry komputerowe", "price": 19900000.0}
{"product_id": 1241, "product_name": "Scania Truck Driving Simulator (PC)", "category_path": "Gry i konsole;Gry komputerowe", "price": 27.99}
{"product_id": 1242, "product_name": "Karaoke Dzieci\u0119ce Przeboje (PC)", "category_path": "Gry i konsole;Gry komputerowe", "price": 62.48}
{"product_id": 1243, "product_name": "KULT HERETIC KINGDOMS (PC)", "category_path": "Gry i konsole;Gry komputerowe", "price": 19.99}
{"product_id": 1244, "product_name": "Hard Reset (PC)", "category_path": "Gry i konsole;Gry komputerowe", "price": 9.99}
{"product_id": 1245, "product_name": "Warhammer 40.000 Dawn of War 2 (PC)", "category_path": "Gry i konsole;Gry komputerowe", "price": 34.99}
{"product_id": 1246, "product_name": "Quake 4 (PC)", "category_path": "Gry i konsole;Gry komputerowe", "price": 33.99}
{"product_id": 1247, "product_name": "Star Wars The Force Unleashed (PC)", "category_path": "Gry i konsole;Gry komputerowe", "price": 63.99}
{"product_id": 1248, "product_name": "GTA Vice City (PC)", "category_path": "Gry i konsole;Gry komputerowe", "price": 40900000.0}
{"product_id": 1249, "product_name": "King&#39;s Bounty Wojownicza Ksi\u0119\u017cniczka (PC)", "category_path": "Gry i konsole;Gry komputerowe", "price": 39.99}
{"product_id": 1250, "product_name": "Port Royale 3 (PC)", "category_path": "Gry i konsole;Gry komputerowe", "price": 23.9}
{"product_id": 1251, "product_name": "Kane &amp; Lynch 2 (PC)", "category_path": "Gry i konsole;Gry komputerowe", "price": 15.9}
{"product_id": 1252, "product_name": "Two Worlds 2 (PC)", "category_path": "Gry i konsole;Gry komputerowe", "price": 12.9}
{"product_id": 1253, "product_name": "The Club (PC)", "category_path": "Gry i konsole;Gry komputerowe", "price": 39.9}
{"product_id": 1254, "product_name": "Warhammer 40.000 Dawn of War Winter Assault (PC)", "category_path": "Gry i konsole;Gry komputerowe", "price": 55900000.0}
{"product_id": 1255, "product_name": "Auta (PC)", "category_path": "Gry i konsole;Gry komputerowe", "price": 32.9}
{"product_id": 1256, "product_name": "Call of Juarez (PC)", "category_path": "Gry i konsole;Gry komputerowe", "price": 36.99}
{"product_id": 1257, "product_name": "Mad Riders (PC)", "category_path": "Gry i konsole;Gry komputerowe", "price": 9.9}
{"product_id": 1258, "product_name": "Rage (PC)", "category_path": "Gry i konsole;Gry komputerowe", "price": 13990000.0}
{"product_id": 1259, "product_name": "Rocksmith (PC)", "category_path": "Gry i konsole;Gry komputerowe", "price": 73.9}
{"product_id": 1260, "product_name": "Sleeping Dogs (PC)", "category_path": "Gry i konsole;Gry komputerowe", "price": -74.9}
{"product_id": 1261, "product_name": "Symulator Maszyn Budowlanych (PC)", "category_path": "Gry i konsole;Gry komputerowe", "price": 9.99}
{"product_id": 1262, "product_name": "Darksiders 2 (PC)", "category_path": "Gry i konsole;Gry komputerowe", "price": 14.99}
{"product_id": 1263, "product_name": "Medieval 2 Total War (PC)", "category_path": "Gry i konsole;Gry komputerowe", "price": 34.99}
{"product_id": 1264, "product_name": "GunMetal (PC)", "category_path": "Gry i konsole;Gry komputerowe", "price": 11.9}
{"product_id": 1265, "product_name": "King&#39;s Bounty Legenda (PC)", "category_path": "Gry i konsole;Gry komputerowe", "price": 26990000.0}
{"product_id": 1266, "product_name": "LA Noire (PC)", "category_path": "Gry i konsole;Gry komputerowe", "price": 47.9}
{"product_id": 1267, "product_name": "Star Wars Knights of the Old Republic 2 (PC)", "category_path": "Gry i konsole;Gry komputerowe", "price": 23.9}
{"product_id": 1268, "product_name": "S.T.A.L.K.E.R. Cie\u0144 Czarnobyla (PC)", "category_path": "Gry i konsole;Gry komputerowe", "price": 25.9}
{"product_id": 1269, "product_name": "Space Hack (PC)", "category_path": "Gry i konsole;Gry komputerowe", "price": 19.99}
{"product_id": 1270, "product_name": "Warhammer 40.000 Space Marine (PC)", "category_path": "Gry i konsole;Gry komputerowe", "price": 7.9}
{"product_id": 1271, "product_name": "Watch Dogs (PC)", "category_path": "Gry i konsole;Gry komputerowe", "price": 189.0}
{"product_id": 1272, "product_name": "The Ball (PC)", "category_path": "Gry i konsole;Gry komputerowe", "price": 1.0}
{"product_id": 1273, "product_name": "The Lost Crown (PC)", "category_path": "Gry i konsole;Gry komputerowe", "price": -29.9}
{"product_id": 1274, "product_name": "The Sims 3 Zwierzaki (PC)", "category_path": "Gry i konsole;Gry komputerowe", "price": 27.9}
{"product_id": 1275, "product_name": "Rome Total War (PC)", "category_path": "Gry i konsole;Gry komputerowe", "price": 54900000.0}
{"product_id": 1276, "product_name": "Apple iPad mini 64GB", "category_path": "Komputery;Tablety i akcesoria;Tablety", "price": 1816.97}
{"product_id": 1277, "product_name": "Apple iPad mini 64GB 4G", "category_path": "Komputery;Tablety i akcesoria;Tablety", "price": 2317.02}
{"product_id": 1278, "product_name": "Intenso Music Walker 8GB", "category_path": "Sprz\u0119t RTV;Przeno\u015bne audio i video;Odtwarzacze mp3 i mp4", "price": 78.9}
{"product_id": 1279, "product_name": "Assassin&#39;s Creed 3 (Xbox 360)", "category_path": "Gry i konsole;Gry na konsole;Gry Xbox 360", "price": 49.99}
{"product_id": 1280, "product_name": "Kinectimals Now with Bears (Xbox 360)", "category_path": "Gry i konsole;Gry na konsole;Gry Xbox 360", "price": 89.0}
{"product_id": 1281, "product_name": "Manta MM266", "category_path": "Sprz\u0119t RTV;Przeno\u015bne audio i video;Odtwarzacze mp3 i mp4", "price": 64.8}
{"product_id": 1282, "product_name": "Kinect Sports Sezon 2 (Xbox 360)", "category_path": "Gry i konsole;Gry na konsole;Gry Xbox 360", "price": 89.99}
{"product_id": 1283, "product_name": "Okulary 3D PHILIPS PTA436/00", "category_path": "Sprz\u0119t RTV;Video;Telewizory i akcesoria;Okulary 3D", "price": 99.99}
{"product_id": 1284, "product_name": "Opticum AX-900", "category_path": "Sprz\u0119t RTV;Video;Telewizory i akcesoria;Anteny RTV", "price": 49.9}
{"product_id": 1285, "product_name": "Opticum AX-800", "category_path": "Sprz\u0119t RTV;Video;Telewizory i akcesoria;Anteny RTV", "price": 82.99}
{"product_id": 1286, "product_name": "Opticum AX-1000", "category_path": "Sprz\u0119t RTV;Video;Telewizory i akcesoria;Anteny RTV", "price": 59.99}
{"product_id": 1287, "product_name": "Philips SDV6226", "category_path": "Sprz\u0119t RTV;Video;Telewizory i akcesoria;Anteny RTV", "price": -129.0}
{"product_id": 1288, "product_name": "Philips SDV5100", "category_path": "Sprz\u0119t RTV;Video;Telewizory i akcesoria;Anteny RTV", "price": 119.0}
{"product_id": 1289, "product_name": "Philips SDV5225", "category_path": "Sprz\u0119t RTV;Video;Telewizory i akcesoria;Anteny RTV", "price": 129.0}
{"product_id": 1290, "product_name": "Philips SDV5120", "category_path": "Sprz\u0119t RTV;Video;Telewizory i akcesoria;Anteny RTV", "price": 169.0}
{"product_id": 1291, "product_name": "Philips SDV6224", "category_path": "Sprz\u0119t RTV;Video;Telewizory i akcesoria;Anteny RTV", "price": 168790000.0}
{"product_id": 1292, "product_name": "Philips SDV8622", "category_path": "Sprz\u0119t RTV;Video;Telewizory i akcesoria;Anteny RTV", "price": 189.0}
{"product_id": 1293, "product_name": "Hama 44292", "category_path": "Sprz\u0119t RTV;Video;Telewizory i akcesoria;Anteny RTV", "price": 44.99}
{"product_id": 1294, "product_name": "Sencor SDA-500", "category_path": "Sprz\u0119t RTV;Video;Telewizory i akcesoria;Anteny RTV", "price": 112.28}
{"product_id": 1295, "product_name": "Sencor SDA-600", "category_path": "Sprz\u0119t RTV;Video;Telewizory i akcesoria;Anteny RTV", "price": 69.99}
{"product_id": 1296, "product_name": "Sencor SDA-630", "category_path": "Sprz\u0119t RTV;Video;Telewizory i akcesoria;Anteny RTV", "price": 89.99}
{"product_id": 1297, "product_name": "Telmor DSP-860", "category_path": "Sprz\u0119t RTV;Video;Telewizory i akcesoria;Anteny RTV", "price": 119.0}
{"product_id": 1298, "product_name": "Thomson ANT1410", "category_path": "Sprz\u0119t RTV;Video;Telewizory i akcesoria;Anteny RTV", "price": 219.0}
{"product_id": 1299, "product_name": "Vivanco TVA 301", "category_path": "Sprz\u0119t RTV;Video;Telewizory i akcesoria;Anteny RTV", "price": 109.0}
{"product_id": 1300, "product_name": "Vivanco TVA 501", "category_path": "Sprz\u0119t RTV;Video;Telewizory i akcesoria;Anteny RTV", "price": 169.0}
{"product_id": 1301, "product_name": "Vivanco TVA 400", "category_path": "Sprz\u0119t RTV;Video;Telewizory i akcesoria;Anteny RTV", "price": 149.0}
{"product_id": 1302, "product_name": "Vivanco TVA 500", "category_path": "Sprz\u0119t RTV;Video;Telewizory i akcesoria;Anteny RTV", "price": 135.0}
{"product_id": 1303, "product_name": "Wiwa AN 220", "category_path": "Sprz\u0119t RTV;Video;Telewizory i akcesoria;Anteny RTV", "price": 59.99}
{"product_id": 1304, "product_name": "Wiwa AN 200", "category_path": "Sprz\u0119t RTV;Video;Telewizory i akcesoria;Anteny RTV", "price": 29.99}
{"product_id": 1305, "product_name": "One For All SV 9360", "category_path": "Sprz\u0119t RTV;Video;Telewizory i akcesoria;Anteny RTV", "price": 111.99}
{"product_id": 1306, "product_name": "One For All SV 9215", "category_path": "Sprz\u0119t RTV;Video;Telewizory i akcesoria;Anteny RTV", "price": 79.99}
{"product_id": 1307, "product_name": "One For All SV 9033", "category_path": "Sprz\u0119t RTV;Video;Telewizory i akcesoria;Anteny RTV", "price": 59.99}
{"product_id": 1308, "product_name": "One For All SV 9143", "category_path": "Sprz\u0119t RTV;Video;Telewizory i akcesoria;Anteny RTV", "price": 99.99}
{"product_id": 1309, "product_name": "One For All SV 9323", "category_path": "Sprz\u0119t RTV;Video;Telewizory i akcesoria;Anteny RTV", "price": 94530000.0}
{"product_id": 1310, "product_name": "One For All SV 9125", "category_path": "Sprz\u0119t RTV;Video;Telewizory i akcesoria;Anteny RTV", "price": 79.99}
{"product_id": 1311, "product_name": "One For All SV 9345", "category_path": "Sprz\u0119t RTV;Video;Telewizory i akcesoria;Anteny RTV", "price": 189.99}
{"product_id": 1312, "product_name": "One For All SV 9335", "category_path": "Sprz\u0119t RTV;Video;Telewizory i akcesoria;Anteny RTV", "price": 99.9}
{"product_id": 1313, "product_name": "Evolveo SHARK", "category_path": "Sprz\u0119t RTV;Video;Telewizory i akcesoria;Anteny RTV", "price": 103.0}
{"product_id": 1314, "product_name": "Assassin&#39;s Creed (Xbox 360)", "category_path": "Gry i konsole;Gry na konsole;Gry Xbox 360", "price": -49.99}
{"product_id": 1315, "product_name": "Jabra Talk", "category_path": "Telefony i akcesoria;Akcesoria telefoniczne;Zestawy s\u0142uchawkowe", "price": 54.99}
{"product_id": 1316, "product_name": "Plantronics Voyager Legend", "category_path": "Telefony i akcesoria;Akcesoria telefoniczne;Zestawy s\u0142uchawkowe", "price": 249.0}
{"product_id": 1317, "product_name": "Plantronics Savi W740", "category_path": "Telefony i akcesoria;Akcesoria telefoniczne;Zestawy s\u0142uchawkowe", "price": 1303.96}
{"product_id": 1318, "product_name": "Plantronics Savi W710", "category_path": "Sprz\u0119t RTV;Audio;S\u0142uchawki", "price": 553.0}
{"product_id": 1319, "product_name": "HTC HS-S200", "category_path": "Telefony i akcesoria;Akcesoria telefoniczne;Zestawy s\u0142uchawkowe", "price": 14.99}
